55
[ -3.80975892e-03  -2.78742909e-03  -1.30803600e-02  -4.07859017e-03
  -1.41996090e-07   1.28232528e-07  -6.66759706e-07   7.55316466e-07]
[  1.71933876e-11  -1.18373430e-11   4.85084199e-11  -1.46173463e-11
   1.08103504e-11  -1.08103504e-11   0.00000000e+00  -1.08103504e-11]
47
[ -7.58652203e-03  -5.10978208e-03  -2.64112484e-02  -6.87724929e-03
  -4.80666824e-07   4.12157563e-07  -1.84961740e-06   1.91159780e-06]
[  2.65720974e-11   1.24827566e-11   6.43613484e-13   3.22388525e-10
  -8.07628826e-11   8.07001298e-11   0.00000000e+00   8.07001298e-11]
67
[ -1.16494734e-02  -8.54916167e-03  -4.01544663e-02  -1.27475572e-02
  -2.56080487e-07   3.31890308e-07  -1.45128286e-06   2.64233631e-06]
[  5.32185092e-10  -3.17294838e-10   1.32346062e-09   3.84451530e-10
   8.29082885e-11  -8.29347781e-11   0.00000000e+00  -8.29347781e-11]
55
[ -1.53191306e-02  -1.12656253e-02  -5.25564469e-02  -1.68167896e-02
  -7.41737980e-07   6.35393673e-07  -3.04645062e-06   3.19397468e-06]
[ -2.16631888e-10   1.36928457e-10  -9.21878065e-10   7.93476015e-10
  -4.89704194e-10   4.90003994e-10  -5.72938772e-10  -8.29347781e-11]
72
[ -1.94819310e-02  -1.49362158e-02  -6.65806558e-02  -2.33640133e-02
  -4.20286615e-07   4.92868980e-07  -2.22089923e-06   3.63220786e-06]
[  8.28632929e-10  -5.25334425e-10   1.91046969e-09   8.97215237e-10
  -7.11918031e-11   7.13112137e-11  -5.72938772e-10  -5.01627558e-10]
96
[ -2.37319147e-02  -1.91591038e-02  -8.04423105e-02  -3.19702535e-02
  -2.14657342e-06   2.11307246e-06  -7.26581530e-06   6.39294318e-06]
[ -2.46593241e-09   2.53865559e-09  -7.55447619e-09   5.75543869e-09
  -2.65713362e-09   2.65726341e-09  -5.72938772e-10   2.08432464e-09]
53
[ -2.75602443e-02  -2.18541299e-02  -9.37083415e-02  -3.57401527e-02
  -1.21939587e-06   1.46744005e-06  -4.49576692e-06   5.30210248e-06]
[ -2.93221168e-10   1.04632751e-09  -1.11083145e-09   3.40963617e-09
  -9.12761160e-10   9.13253617e-10   1.17107102e-09   2.08432464e-09]
55
[ -3.72009394e-03  -2.74213324e-03  -1.26469488e-02  -4.07260620e-03
   7.32943347e-07  -5.47469788e-07   2.25859487e-06  -1.12329913e-06]
[  1.05178747e-10  -7.32938712e-11   3.08677899e-10  -1.01599631e-10
   7.99420897e-11  -7.99420897e-11   0.00000000e+00  -7.99420897e-11]
48
[ -7.19256900e-03  -5.00538049e-03  -2.44371762e-02  -7.08569730e-03
   4.51654823e-07  -3.99519571e-07   1.58141508e-06  -1.34269225e-06]
[ -1.45668661e-10   6.92891426e-11  -3.88001164e-10  -5.57885478e-11
  -4.75759503e-11   4.76706640e-11   0.00000000e+00   4.76706640e-11]
78
[ -1.14789587e-02  -8.93033853e-03  -3.88500875e-02  -1.43795954e-02
   4.96678930e-07  -3.54766874e-07   1.58134356e-06  -7.04242867e-07]
[  9.90003704e-11  -8.66036068e-11   2.22482996e-10   9.07555743e-11
   1.10253639e-11  -1.09518989e-11   5.86225629e-11   4.76706640e-11]
56
[ -1.52408768e-02  -1.17424900e-02  -5.16453815e-02  -1.86103582e-02
   1.25488470e-06  -8.68482861e-07   3.63885456e-06  -1.00935967e-06]
[  1.17921454e-09  -8.35120045e-10   3.26184921e-09  -6.43718619e-10
   6.72463118e-10  -6.72253519e-10   7.19924183e-10   4.76706640e-11]
52
[ -1.89986036e-02  -1.43509412e-02  -6.46196339e-02  -2.22231874e-02
   2.74650581e-06  -1.82397816e-06   7.91586194e-06  -1.98429258e-06]
[  3.90167829e-09  -2.55897246e-09   1.11284982e-08  -2.40960218e-09
   2.48541714e-09  -2.48619710e-09   7.19924183e-10  -1.76627292e-09]
48
[ -2.25861878e-02  -1.66625036e-02  -7.69600160e-02  -2.52256471e-02
   1.40284124e-06  -9.94757247e-07   3.93801128e-06  -8.06047804e-07]
[  1.17910847e-09  -8.89358781e-10   3.13715062e-09  -2.50799286e-10
   4.17230797e-10  -4.16433545e-10  -1.34983937e-09  -1.76627292e-09]
74
[ -2.65949618e-02  -2.02847123e-02  -9.01959234e-02  -3.18919088e-02
   1.24824629e-06  -8.44326961e-07   3.50150215e-06  -5.32543267e-07]
[  9.22758388e-10  -6.24620872e-10   2.37446352e-09   3.49332596e-10
   2.01837556e-10  -2.01161721e-10  -1.56511119e-09  -1.76627292e-09]
55
[ -3.02871963e-02  -2.30138751e-02  -1.02700694e-01  -3.59677790e-02
   2.41502526e-06  -1.76976799e-06   7.13930928e-06  -2.74183617e-06]
[  3.33507744e-09  -2.55564975e-09   9.89110023e-09  -4.30385128e-09
   2.70301191e-09  -2.70160546e-09  -1.56511119e-09  -4.26671665e-09]
68
[ -3.93630059e-03  -3.39298930e-03  -1.31077810e-02  -5.93612173e-03
   4.62225953e-08   4.34715185e-08   1.45912558e-07   3.61988553e-07]
[  1.64578247e-10  -1.08631338e-10   4.55761088e-10  -3.48757244e-11
   8.05821008e-11  -8.05821008e-11   0.00000000e+00  -8.05821008e-11]
50
[ -3.63517986e-03  -2.44368943e-03  -1.24823256e-02  -3.30377232e-03
   8.56481330e-07  -5.88426627e-07   2.64366983e-06  -1.20224238e-06]
[  1.19864775e-10  -7.66474562e-11   3.52762089e-10  -1.02793134e-10
   9.07229179e-11  -9.07229179e-11   0.00000000e+00  -9.07229179e-11]
59
[ -7.48681718e-03  -5.44020007e-03  -2.55678034e-02  -7.99218185e-03
  -2.60306863e-07   3.04885107e-07  -1.13471420e-06   1.29266869e-06]
[ -3.04187050e-10   2.47210923e-10  -9.77500991e-10   5.74008855e-10
  -3.54048795e-10   3.53976905e-10   0.00000000e+00   3.53976905e-10]
66
[ -1.15639257e-02  -8.85324485e-03  -3.94191731e-02  -1.37397672e-02
  -1.59108965e-07   2.23559024e-07  -6.73684608e-07   8.52104131e-07]
[ -1.96788402e-10   1.85596544e-10  -6.08566391e-10   4.55309459e-10
  -2.35945259e-10   2.35694173e-10   1.18282732e-10   3.53976905e-10]
74
[ -1.59350188e-02  -1.27252445e-02  -5.43672504e-02  -2.06512135e-02
   7.81678387e-07  -5.27545106e-07   1.89673717e-06   1.22913239e-07]
[  1.14573797e-09  -8.97631271e-10   3.13338488e-09  -7.97713180e-10
   6.13204136e-10  -6.13473923e-10   9.67450828e-10   3.53976905e-10]
49
[ -1.94576845e-02  -1.50659559e-02  -6.63481836e-02  -2.38146186e-02
   1.20294906e-06  -7.90232296e-07   2.98456320e-06   7.74099399e-08]
[  1.95879755e-09  -1.41790143e-09   5.37967550e-09  -1.24833279e-09
   1.06865990e-09  -1.07044243e-09   9.67450828e-10  -1.02991597e-10]
