digraph {
	node [fontsize=9 height=0.2 shape=circle width=0.2]
	A [fillcolor=lightgray shape=box style=filled]
	B [fillcolor=lightgray shape=box style=filled]
	"A XOR B" [fillcolor=lightblue style=filled]
	1 [fillcolor=white style=filled]
	2 [fillcolor=white style=filled]
	3 [fillcolor=white style=filled]
	4 [fillcolor=white style=filled]
	5 [fillcolor=white style=filled]
	6 [fillcolor=white style=filled]
	7 [fillcolor=white style=filled]
	8 [fillcolor=white style=filled]
	10 [fillcolor=white style=filled]
	11 [fillcolor=white style=filled]
		2 -> 7 [color=green penwidth=0.20093726741536394 style=solid]
		7 -> 3 [color=red penwidth=0.4925353492391208 style=solid]
		B -> 1 [color=red penwidth=2.6692082164581663 style=solid]
		1 -> 2 [color=red penwidth=0.6459987645481672 style=dotted]
		A -> "A XOR B" [color=red penwidth=1.3271070594078902 style=solid]
		B -> 7 [color=red penwidth=0.18571789624329327 style=solid]
		11 -> 2 [color=red penwidth=0.502172458546462 style=solid]
		8 -> 10 [color=green penwidth=0.23347632204329313 style=solid]
		2 -> 10 [color=red penwidth=0.21493146564035026 style=solid]
		1 -> 5 [color=red penwidth=0.11501064969850058 style=solid]
		1 -> 8 [color=red penwidth=0.39901578712841057 style=solid]
		6 -> 2 [color=red penwidth=0.12935159972334673 style=dotted]
		B -> 10 [color=red penwidth=0.6534645907289028 style=solid]
		B -> 5 [color=green penwidth=0.6642156311424229 style=dotted]
		A -> 1 [color=red penwidth=2.0342700053876235 style=solid]
		1 -> 10 [color=red penwidth=0.37090884149739944 style=solid]
		B -> 4 [color=green penwidth=1.208768115025075 style=solid]
		1 -> "A XOR B" [color=red penwidth=2.8598389734676606 style=solid]
		10 -> 3 [color=green penwidth=0.5292614686216026 style=solid]
		3 -> 10 [color=red penwidth=0.238422054887359 style=solid]
		4 -> "A XOR B" [color=red penwidth=1.344181974056662 style=solid]
}
